<?xml version="1.0" encoding="UTF-8"?>
<robot generator="Robot 6.1.1 (Python 3.11.4 on win32)" generated="20230823 01:07:04.288" rpa="false" schemaversion="4">
<suite id="s1" name="Api Tests" source="D:\Projects_automation\RobotFramework\PrimeControl\Tests\api_tests.robot">
<test id="s1-t1" name="Create a User" line="6">
<kw name="Given the API is available" library="steps">
<kw name="Check if the API is available" library="common">
<kw name="Perform GET Request" library="common">
<var>${response}</var>
<arg>/users?page=2</arg>
<kw name="GET" library="RequestsLibrary">
<var>${response}</var>
<arg>${BASE_URL}${endpoint}</arg>
<doc>Sends a GET request.</doc>
<msg timestamp="20230823 01:07:04.539" level="INFO">GET Request : url=https://reqres.in/api/users?page=2 
 path_url=/api/users?page=2 
 headers={'User-Agent': 'python-requests/2.31.0', 'Accept-Encoding': 'gzip, deflate', 'Accept': '*/*', 'Connection': 'keep-alive'} 
 body=None 
 </msg>
<msg timestamp="20230823 01:07:04.539" level="INFO">GET Response : url=https://reqres.in/api/users?page=2 
 status=200, reason=OK 
 headers={'Date': 'Wed, 23 Aug 2023 04:06:39 GMT', 'Content-Type': 'application/json; charset=utf-8', 'Transfer-Encoding': 'chunked', 'Connection': 'keep-alive', 'X-Powered-By': 'Express', 'Access-Control-Allow-Origin': '*', 'Etag': 'W/"406-ut0vzoCuidvyMf8arZpMpJ6ZRDw"', 'Via': '1.1 vegur', 'Cache-Control': 'max-age=14400', 'CF-Cache-Status': 'HIT', 'Age': '2197', 'Report-To': '{"endpoints":[{"url":"https:\\/\\/a.nel.cloudflare.com\\/report\\/v3?s=93pIJ04ra%2FLrXAMbDoemYssYd4KmteUiw%2FD6pe8lsitPFLq9zrEJQYOYDswg8%2BxLOI59q0UgNVO1b6nNpMytLIusko%2FwYXRoRcjwgAZFw7W5485QJJXlqMLx9Ojy1L2NUs2WbGImKg%3D%3D"}],"group":"cf-nel","max_age":604800}', 'NEL': '{"success_fraction":0,"report_to":"cf-nel","max_age":604800}', 'Vary': 'Accept-Encoding', 'Server': 'cloudflare', 'CF-RAY': '7fb07bf1f9505205-GRU', 'Content-Encoding': 'gzip'} 
 body={"page":2,"per_page":6,"total":12,"total_pages":2,"data":[{"id":7,"email":"michael.lawson@reqres.in","first_name":"Michael","last_name":"Lawson","avatar":"https://reqres.in/img/faces/7-image.jpg"},{"id":8,"email":"lindsay.ferguson@reqres.in","first_name":"Lindsay","last_name":"Ferguson","avatar":"https://reqres.in/img/faces/8-image.jpg"},{"id":9,"email":"tobias.funke@reqres.in","first_name":"Tobias","last_name":"Funke","avatar":"https://reqres.in/img/faces/9-image.jpg"},{"id":10,"email":"byron.fields@reqres.in","first_name":"Byron","last_name":"Fields","avatar":"https://reqres.in/img/faces/10-image.jpg"},{"id":11,"email":"george.edwards@reqres.in","first_name":"George","last_name":"Edwards","avatar":"https://reqres.in/img/faces/11-image.jpg"},{"id":12,"email":"rachel.howell@reqres.in","first_name":"Rachel","last_name":"Howell","avatar":"https://reqres.in/img/faces/12-image.jpg"}],"support":{"url":"https://reqres.in/#support-heading","text":"To keep ReqRes free, contributions towards server costs are appreciated!"}} 
 </msg>
<msg timestamp="20230823 01:07:04.540" level="INFO">${response} = &lt;Response [200]&gt;</msg>
<status status="PASS" starttime="20230823 01:07:04.491" endtime="20230823 01:07:04.540"/>
</kw>
<msg timestamp="20230823 01:07:04.540" level="INFO">${response} = &lt;Response [200]&gt;</msg>
<status status="PASS" starttime="20230823 01:07:04.491" endtime="20230823 01:07:04.540"/>
</kw>
<kw name="Check If Response Code Is 200" library="common">
<arg>${response}</arg>
<kw name="Should Be Equal" library="BuiltIn">
<arg>${response.status_code}</arg>
<arg>${200}</arg>
<doc>Fails if the given objects are unequal.</doc>
<status status="PASS" starttime="20230823 01:07:04.540" endtime="20230823 01:07:04.541"/>
</kw>
<status status="PASS" starttime="20230823 01:07:04.540" endtime="20230823 01:07:04.541"/>
</kw>
<status status="PASS" starttime="20230823 01:07:04.491" endtime="20230823 01:07:04.541"/>
</kw>
<status status="PASS" starttime="20230823 01:07:04.490" endtime="20230823 01:07:04.541"/>
</kw>
<kw name="When I create a user with given username and password, the status code should be 201" library="steps">
<arg>${EMAIL}</arg>
<arg>${PWD}</arg>
<arg>${FIRSTNAME}</arg>
<arg>${LASTNAME}</arg>
<kw name="Create a new user" library="keywords">
<var>${response}</var>
<arg>${user_email}</arg>
<arg>${user_password}</arg>
<kw name="Create Dictionary" library="BuiltIn">
<var>${body}</var>
<arg>email=${email}</arg>
<arg>password=${password}</arg>
<doc>Creates and returns a dictionary based on the given ``items``.</doc>
<msg timestamp="20230823 01:07:04.542" level="INFO">${body} = {'email': 'eve.holt@reqres.in', 'password': 'pistol'}</msg>
<status status="PASS" starttime="20230823 01:07:04.542" endtime="20230823 01:07:04.542"/>
</kw>
<kw name="Perform POST Request" library="common">
<var>${response}</var>
<arg>${register_endpoint}</arg>
<arg>${body}</arg>
<arg>${header}</arg>
<kw name="Create Dictionary" library="BuiltIn">
<var>${headers}</var>
<arg>Content-Type=application/json</arg>
<doc>Creates and returns a dictionary based on the given ``items``.</doc>
<msg timestamp="20230823 01:07:04.543" level="INFO">${headers} = {'Content-Type': 'application/json'}</msg>
<status status="PASS" starttime="20230823 01:07:04.543" endtime="20230823 01:07:04.543"/>
</kw>
<kw name="POST" library="RequestsLibrary">
<var>${response}</var>
<arg>${BASE_URL}${endpoint}</arg>
<arg>json=${data}</arg>
<arg>headers=${headers}</arg>
<doc>Sends a POST request.</doc>
<msg timestamp="20230823 01:07:05.022" level="INFO">POST Request : url=https://reqres.in/api/register 
 path_url=/api/register 
 headers={'User-Agent': 'python-requests/2.31.0', 'Accept-Encoding': 'gzip, deflate', 'Accept': '*/*', 'Connection': 'keep-alive', 'Content-Type': 'application/json', 'Content-Length': '53'} 
 body=b'{"email": "eve.holt@reqres.in", "password": "pistol"}' 
 </msg>
<msg timestamp="20230823 01:07:05.022" level="INFO">POST Response : url=https://reqres.in/api/register 
 status=200, reason=OK 
 headers={'Date': 'Wed, 23 Aug 2023 04:06:40 GMT', 'Content-Type': 'application/json; charset=utf-8', 'Content-Length': '36', 'Connection': 'keep-alive', 'X-Powered-By': 'Express', 'Access-Control-Allow-Origin': '*', 'Etag': 'W/"24-4iP0za1geN2he+ohu8F0FhCjLks"', 'Via': '1.1 vegur', 'CF-Cache-Status': 'DYNAMIC', 'Report-To': '{"endpoints":[{"url":"https:\\/\\/a.nel.cloudflare.com\\/report\\/v3?s=YQ1lCQ%2BdPQFIad6w2QDKoLQHVpwgQOHi8ucT1UozokJXxq1jusaU5m9J05u8io%2FGALIcBhEgn67BbygMygU60ft3FHVOdXSZMaTGVMRAwatOg8YPZCcUkshN%2FctsKiN%2FFonvYxG1wQ%3D%3D"}],"group":"cf-nel","max_age":604800}', 'NEL': '{"success_fraction":0,"report_to":"cf-nel","max_age":604800}', 'Server': 'cloudflare', 'CF-RAY': '7fb07bf23c7a1a9e-GRU'} 
 body={"id":4,"token":"QpwL5tke4Pnpja7X4"} 
 </msg>
<msg timestamp="20230823 01:07:05.022" level="INFO">${response} = &lt;Response [200]&gt;</msg>
<status status="PASS" starttime="20230823 01:07:04.543" endtime="20230823 01:07:05.022"/>
</kw>
<msg timestamp="20230823 01:07:05.023" level="INFO">${response} = &lt;Response [200]&gt;</msg>
<status status="PASS" starttime="20230823 01:07:04.542" endtime="20230823 01:07:05.023"/>
</kw>
<msg timestamp="20230823 01:07:05.023" level="INFO">${response} = &lt;Response [200]&gt;</msg>
<status status="PASS" starttime="20230823 01:07:04.542" endtime="20230823 01:07:05.023"/>
</kw>
<kw name="Set Suite Variable" library="BuiltIn">
<arg>${response}</arg>
<doc>Makes a variable available everywhere within the scope of the current suite.</doc>
<msg timestamp="20230823 01:07:05.023" level="INFO">${response} = &lt;Response [200]&gt;</msg>
<status status="PASS" starttime="20230823 01:07:05.023" endtime="20230823 01:07:05.023"/>
</kw>
<kw name="Check If Response Code Is 200" library="common">
<arg>${response}</arg>
<kw name="Should Be Equal" library="BuiltIn">
<arg>${response.status_code}</arg>
<arg>${200}</arg>
<doc>Fails if the given objects are unequal.</doc>
<status status="PASS" starttime="20230823 01:07:05.024" endtime="20230823 01:07:05.024"/>
</kw>
<status status="PASS" starttime="20230823 01:07:05.023" endtime="20230823 01:07:05.024"/>
</kw>
<status status="PASS" starttime="20230823 01:07:04.541" endtime="20230823 01:07:05.025"/>
</kw>
<kw name="Then the response JSON should contain The correct user email" library="steps">
<kw name="Convert String To Json" library="JSONLibrary">
<var>${responseJson}</var>
<arg>${response.content}</arg>
<doc>Convert String to JSON object</doc>
<msg timestamp="20230823 01:07:05.026" level="INFO">${responseJson} = {'id': 4, 'token': 'QpwL5tke4Pnpja7X4'}</msg>
<status status="PASS" starttime="20230823 01:07:05.025" endtime="20230823 01:07:05.026"/>
</kw>
<kw name="Get value from JSON key" library="common">
<var>${id}</var>
<arg>${responseJson}</arg>
<arg>id</arg>
<kw name="Get From Dictionary" library="Collections">
<var>${actual_value}</var>
<arg>${json}</arg>
<arg>${key}</arg>
<doc>Returns a value from the given ``dictionary`` based on the given ``key``.</doc>
<msg timestamp="20230823 01:07:05.027" level="INFO">${actual_value} = 4</msg>
<status status="PASS" starttime="20230823 01:07:05.027" endtime="20230823 01:07:05.027"/>
</kw>
<msg timestamp="20230823 01:07:05.027" level="INFO">${id} = 4</msg>
<status status="PASS" starttime="20230823 01:07:05.026" endtime="20230823 01:07:05.027"/>
</kw>
<kw name="Fetch the new user" library="keywords">
<arg>${id}</arg>
<arg>${EMAIL}</arg>
<arg>${FIRSTNAME}</arg>
<arg>${LASTNAME}</arg>
<kw name="Perform GET Request" library="common">
<var>${response}</var>
<arg>${users_endpoint}/${id}</arg>
<kw name="GET" library="RequestsLibrary">
<var>${response}</var>
<arg>${BASE_URL}${endpoint}</arg>
<doc>Sends a GET request.</doc>
<msg timestamp="20230823 01:07:05.485" level="INFO">GET Request : url=https://reqres.in/api/users/4 
 path_url=/api/users/4 
 headers={'User-Agent': 'python-requests/2.31.0', 'Accept-Encoding': 'gzip, deflate', 'Accept': '*/*', 'Connection': 'keep-alive'} 
 body=None 
 </msg>
<msg timestamp="20230823 01:07:05.485" level="INFO">GET Response : url=https://reqres.in/api/users/4 
 status=200, reason=OK 
 headers={'Date': 'Wed, 23 Aug 2023 04:06:40 GMT', 'Content-Type': 'application/json; charset=utf-8', 'Transfer-Encoding': 'chunked', 'Connection': 'keep-alive', 'X-Powered-By': 'Express', 'Access-Control-Allow-Origin': '*', 'Etag': 'W/"110-Xdg3LtI+q2zMxihHlfeIZQo/bvY"', 'Via': '1.1 vegur', 'Cache-Control': 'max-age=14400', 'CF-Cache-Status': 'REVALIDATED', 'Report-To': '{"endpoints":[{"url":"https:\\/\\/a.nel.cloudflare.com\\/report\\/v3?s=GeqvEGgI0Mc08xZomh2%2BeBPXJc2MUSrLM2FGD3b%2BLf0OXSCkvpqeg671nt%2BEPPNXgQN1E%2FcbGQSvdoP%2FpDY7kFaBXOMAgFaKOS3Reej6RXSQxCcAHebX348q0gizYpd7EFa%2BtdB%2B9A%3D%3D"}],"group":"cf-nel","max_age":604800}', 'NEL': '{"success_fraction":0,"report_to":"cf-nel","max_age":604800}', 'Vary': 'Accept-Encoding', 'Server': 'cloudflare', 'CF-RAY': '7fb07bf54f27a56b-GRU', 'Content-Encoding': 'gzip'} 
 body={"data":{"id":4,"email":"eve.holt@reqres.in","first_name":"Eve","last_name":"Holt","avatar":"https://reqres.in/img/faces/4-image.jpg"},"support":{"url":"https://reqres.in/#support-heading","text":"To keep ReqRes free, contributions towards server costs are appreciated!"}} 
 </msg>
<msg timestamp="20230823 01:07:05.485" level="INFO">${response} = &lt;Response [200]&gt;</msg>
<status status="PASS" starttime="20230823 01:07:05.027" endtime="20230823 01:07:05.485"/>
</kw>
<msg timestamp="20230823 01:07:05.485" level="INFO">${response} = &lt;Response [200]&gt;</msg>
<status status="PASS" starttime="20230823 01:07:05.027" endtime="20230823 01:07:05.485"/>
</kw>
<kw name="Convert String To Json" library="JSONLibrary">
<var>${responseJson}</var>
<arg>${response.content}</arg>
<doc>Convert String to JSON object</doc>
<msg timestamp="20230823 01:07:05.486" level="INFO">${responseJson} = {'data': {'id': 4, 'email': 'eve.holt@reqres.in', 'first_name': 'Eve', 'last_name': 'Holt', 'avatar': 'https://reqres.in/img/faces/4-image.jpg'}, 'support': {'url': 'https://reqres.in/#support-heading...</msg>
<status status="PASS" starttime="20230823 01:07:05.485" endtime="20230823 01:07:05.486"/>
</kw>
<kw name="Set Variable" library="BuiltIn">
<var>${actualEmail}</var>
<arg>${responseJson['data']['email']}</arg>
<doc>Returns the given values which can then be assigned to a variables.</doc>
<msg timestamp="20230823 01:07:05.486" level="INFO">${actualEmail} = eve.holt@reqres.in</msg>
<status status="PASS" starttime="20230823 01:07:05.486" endtime="20230823 01:07:05.486"/>
</kw>
<kw name="Set Variable" library="BuiltIn">
<var>${actualFirstName}</var>
<arg>${responseJson['data']['first_name']}</arg>
<doc>Returns the given values which can then be assigned to a variables.</doc>
<msg timestamp="20230823 01:07:05.487" level="INFO">${actualFirstName} = Eve</msg>
<status status="PASS" starttime="20230823 01:07:05.486" endtime="20230823 01:07:05.487"/>
</kw>
<kw name="Set Variable" library="BuiltIn">
<var>${actualLastName}</var>
<arg>${responseJson['data']['last_name']}</arg>
<doc>Returns the given values which can then be assigned to a variables.</doc>
<msg timestamp="20230823 01:07:05.487" level="INFO">${actualLastName} = Holt</msg>
<status status="PASS" starttime="20230823 01:07:05.487" endtime="20230823 01:07:05.487"/>
</kw>
<kw name="Should Be Equal" library="BuiltIn">
<arg>${email}</arg>
<arg>${actualEmail}</arg>
<arg>The expected user's e-mail is "${email}" and the actual e-mail is "${actualEmail}"</arg>
<doc>Fails if the given objects are unequal.</doc>
<status status="PASS" starttime="20230823 01:07:05.487" endtime="20230823 01:07:05.487"/>
</kw>
<kw name="Should Be Equal" library="BuiltIn">
<arg>${first_name}</arg>
<arg>${actualFirstName}</arg>
<arg>The expected user's first name is "${email}" and the actual first name is "${actualEmail}"</arg>
<doc>Fails if the given objects are unequal.</doc>
<status status="PASS" starttime="20230823 01:07:05.487" endtime="20230823 01:07:05.488"/>
</kw>
<kw name="Should Be Equal" library="BuiltIn">
<arg>${last_name}</arg>
<arg>${actualLastName}</arg>
<arg>The expected user's last name is "${email}" and the actual last name is "${actualEmail}"</arg>
<doc>Fails if the given objects are unequal.</doc>
<status status="PASS" starttime="20230823 01:07:05.488" endtime="20230823 01:07:05.488"/>
</kw>
<status status="PASS" starttime="20230823 01:07:05.027" endtime="20230823 01:07:05.488"/>
</kw>
<status status="PASS" starttime="20230823 01:07:05.025" endtime="20230823 01:07:05.488"/>
</kw>
<status status="PASS" starttime="20230823 01:07:04.490" endtime="20230823 01:07:05.488"/>
</test>
<status status="PASS" starttime="20230823 01:07:04.289" endtime="20230823 01:07:05.489"/>
</suite>
<statistics>
<total>
<stat pass="1" fail="0" skip="0">All Tests</stat>
</total>
<tag>
</tag>
<suite>
<stat pass="1" fail="0" skip="0" id="s1" name="Api Tests">Api Tests</stat>
</suite>
</statistics>
<errors>
</errors>
</robot>
